\relax 
\PgInfo{question@1}{1}
\PgInfo{question1@object1}{1}
\newlabel{question@1}{{1}{1}}
\PgInfo{part@1@1}{1}
\PgInfo{question1@object2}{1}
\newlabel{part@1@1}{{a}{1}}
\PgInfo{subpart@1@1@1}{1}
\PgInfo{question1@object3}{1}
\newlabel{subpart@1@1@1}{{i}{1}}
\PgInfo{subpart@1@1@2}{1}
\PgInfo{question1@object4}{1}
\newlabel{subpart@1@1@2}{{ii}{1}}
\PgInfo{subpart@1@1@3}{1}
\PgInfo{question1@object5}{1}
\newlabel{subpart@1@1@3}{{iii}{1}}
\PgInfo{subpart@1@1@4}{2}
\PgInfo{question1@object6}{2}
\newlabel{subpart@1@1@4}{{iv}{2}}
\PgInfo{part@1@2}{2}
\PgInfo{question1@object7}{2}
\newlabel{part@1@2}{{b}{2}}
\gdef\pointsofq@i{0}
\gdef\bonuspointsofq@i{0}
\PgInfo{question@2}{3}
\PgInfo{question2@object1}{3}
\newlabel{question@2}{{2}{3}}
\PgInfo{part@2@1}{3}
\PgInfo{question2@object2}{3}
\newlabel{part@2@1}{{a}{3}}
\PgInfo{part@2@2}{3}
\PgInfo{question2@object3}{3}
\newlabel{part@2@2}{{b}{3}}
\gdef\pointsofq@ii{0}
\gdef\bonuspointsofq@ii{0}
